﻿text.started,text.stopped,key_resp.keys,key_resp.rt,key_resp.started,key_resp.stopped,text_2.started,text_2.stopped,key_resp_2.keys,key_resp_2.rt,key_resp_2.started,key_resp_2.stopped,participant,session,age,gender,date,expName,psychopyVersion,frameRate,
16.330795400004718,None,space,1.9796534000051906,16.330795400004718,None,,,,,,,,,,,2024_Feb_13_1115,rtt,2021.1.2,60.03600959668105,
,,,,,,18.34512499999255,None,space,0.45059380000748206,18.34512499999255,None,,,,,2024_Feb_13_1115,rtt,2021.1.2,60.03600959668105,
